{
  "project_info": {
    "project_number": "7270540421",
    "firebase_url": "https://app-0f.firebaseio.com",
    "project_id": "app-0f",
    "storage_bucket": "app-0f.appspot.com"
  },
  "client": [
    {
      "client_info": {
        "mobilesdk_app_id": "1:7270540421:android:7fa4baf2aeb1b27f6c75ec",
        "android_client_info": {
          "package_name": "prasetyo.dendy.app0f"
        }
      },
      "oauth_client": [
        {
          "client_id": "7270540421-2a5bhtp98373su7dt6dm209ehu4qee73.apps.googleusercontent.com",
          "client_type": 3
        }
      ],
      "api_key": [
        {
          "current_key": "AIzaSyAOgOGeFsD-WvfB323RZiC3zII1MZQWwZk"
        }
      ],
      "services": {
        "appinvite_service": {
          "other_platform_oauth_client": [
            {
              "client_id": "7270540421-2a5bhtp98373su7dt6dm209ehu4qee73.apps.googleusercontent.com",
              "client_type": 3
            }
          ]
        }
      }
    }
  ],
  "configuration_version": "1"
}